SNES Object: 5 MPI processes
  type: newtonls
  maximum iterations=50, maximum function evaluations=10000
  tolerances: relative=1e-08, absolute=1e-50, solution=1e-08
  total number of linear solver iterations=100
  total number of function evaluations=2
  norm schedule ALWAYS
  SNESLineSearch Object: 5 MPI processes
    type: bt
      interpolation: cubic
      alpha=1.000000e-04
    maxstep=1.000000e+08, minlambda=1.000000e-12
    tolerances: relative=1.000000e-08, absolute=1.000000e-15, lambda=1.000000e-08
    maximum iterations=40
  KSP Object: 5 MPI processes
    type: fetidp
      fully redundant: 0
      saddle point:    1
      inner solver details
        KSP Object: (fetidp_) 5 MPI processes
          type: cg
          maximum iterations=10000, initial guess is zero
          tolerances:  relative=1e-08, absolute=1e-50, divergence=10000.
          left preconditioning
          using PRECONDITIONED norm type for convergence test
        PC Object: (fetidp_) 5 MPI processes
          type: fieldsplit
            FieldSplit with Schur preconditioner, factorization DIAG
            Preconditioner for the Schur complement formed from user provided matrix
            Split info:
            Split number 0 Defined by IS
            Split number 1 Defined by IS
            KSP solver for A00 block
              KSP Object: (fetidp_fieldsplit_lag_) 5 MPI processes
                type: preonly
                maximum iterations=10000, initial guess is zero
                tolerances:  relative=1e-05, absolute=1e-50, divergence=10000.
                left preconditioning
                using NONE norm type for convergence test
              PC Object: 5 MPI processes
                type: shell
                  no name
                    FETI-DP multipliers Dirichlet preconditioner (just from rank 0)
                      Mat Object: 1 MPI processes
                        type: schurcomplement
                        rows=172, cols=172
                          Schur complement A11 - A10 inv(A00) A01
                          A11
                            Mat Object: 1 MPI processes
                              type: seqaij
                              rows=172, cols=172
                              total: nonzeros=6010, allocated nonzeros=6010
                              total number of mallocs used during MatSetValues calls =0
                                using I-node routines: found 65 nodes, limit used is 5
                          A10
                            Mat Object: 1 MPI processes
                              type: seqaij
                              rows=172, cols=105
                              total: nonzeros=2316, allocated nonzeros=2316
                              total number of mallocs used during MatSetValues calls =0
                                using I-node routines: found 62 nodes, limit used is 5
                          KSP of A00
                            KSP Object: (fetidp_harmonic_) 1 MPI processes
                              type: preonly
                              maximum iterations=10000, initial guess is zero
                              tolerances:  relative=1e-05, absolute=1e-50, divergence=10000.
                              left preconditioning
                              using NONE norm type for convergence test
                            PC Object: (fetidp_harmonic_) 1 MPI processes
                              type: cholesky
                                out-of-place factorization
                                tolerance for zero pivot 2.22045e-14
                                matrix ordering: natural
                                factor fill ratio given 0., needed 0.
                                  Factored matrix follows:
                                    Mat Object: 1 MPI processes
                                      type: cholmod
                                      rows=105, cols=105
                                      package used to perform factorization: cholmod
                                      total: nonzeros=0, allocated nonzeros=0
                                      total number of mallocs used during MatSetValues calls =0
                                        CHOLMOD run parameters:
                                          Pack factors after symbolic factorization: TRUE
                                          Common.dbound            0.  (Smallest absolute value of diagonal entries of D)
                                          Common.grow0             1.2
                                          Common.grow1             1.2
                                          Common.grow2             5
                                          Common.maxrank           8
                                          Common.supernodal_switch 40.
                                          Common.supernodal        1
                                          Common.final_asis        1
                                          Common.final_super       1
                                          Common.final_ll          0
                                          Common.final_pack        1
                                          Common.final_monotonic   1
                                          Common.final_resymbol    0
                                          Common.zrelax            [0.8,0.1,0.05]
                                          Common.nrelax            [4,16,48]
                                          Common.prefer_upper      1
                                          Common.print             3
                                          Common.postorder         1
                                          Common.default_nesdis    0 (use NESDIS instead of METIS for nested dissection)
                                          Common.fl                65884. (flop count from most recent analysis)
                                          Common.lnz               2424. (fundamental nz in L)
                                          Common.anz               1668.
                                          Common.modfl             -1. (flop count from most recent update)
                                          Common.malloc_count      13. (number of live objects)
                                          Common.memory_usage      56568. (peak memory usage in bytes)
                                          Common.memory_inuse      36040. (current memory usage in bytes)
                                          Common.nrealloc_col      0. (number of column reallocations)
                                          Common.nrealloc_factor   0. (number of factor reallocations due to column reallocations)
                                          Common.ndbounds_hit      0. (number of times diagonal was modified by dbound)
                                          Common.rowfacfl          65779. (number of flops in last call to cholmod_rowfac)
                                          Common.aatfl             0. (number of flops to compute A(:,f)*A(:,f)')
                              linear system matrix = precond matrix:
                              Mat Object: 1 MPI processes
                                type: seqaij
                                rows=105, cols=105
                                total: nonzeros=3231, allocated nonzeros=3231
                                total number of mallocs used during MatSetValues calls =0
                                  using I-node routines: found 35 nodes, limit used is 5
                          A01
                            Mat Object: 1 MPI processes
                              type: seqaij
                              rows=105, cols=172
                              total: nonzeros=2316, allocated nonzeros=2316
                              total number of mallocs used during MatSetValues calls =0
                                using I-node routines: found 35 nodes, limit used is 5
                    FETI-DP BDdelta: DB^t * (B D^-1 B^t)^-1 for deluxe scaling (just from rank 0)
                      KSP Object: (fetidp_bddelta_) 1 MPI processes
                        type: preonly
                        maximum iterations=10000, initial guess is zero
                        tolerances:  relative=1e-05, absolute=1e-50, divergence=10000.
                        left preconditioning
                        using NONE norm type for convergence test
                      PC Object: (fetidp_bddelta_) 1 MPI processes
                        type: lu
                          out-of-place factorization
                          tolerance for zero pivot 2.22045e-14
                          matrix ordering: nd
                          factor fill ratio given 0., needed 0.
                            Factored matrix follows:
                              Mat Object: 1 MPI processes
                                type: umfpack
                                rows=210, cols=210
                                package used to perform factorization: umfpack
                                total: nonzeros=0, allocated nonzeros=0
                                total number of mallocs used during MatSetValues calls =0
                                  UMFPACK run parameters:
                                    Control[UMFPACK_PRL]: 1.
                                    Control[UMFPACK_STRATEGY]: 0.
                                    Control[UMFPACK_DENSE_COL]: 0.2
                                    Control[UMFPACK_DENSE_ROW]: 0.2
                                    Control[UMFPACK_AMD_DENSE]: 10.
                                    Control[UMFPACK_BLOCK_SIZE]: 32.
                                    Control[UMFPACK_FIXQ]: 0.
                                    Control[UMFPACK_AGGRESSIVE]: 1.
                                    Control[UMFPACK_PIVOT_TOLERANCE]: 0.1
                                    Control[UMFPACK_SYM_PIVOT_TOLERANCE]: 0.001
                                    Control[UMFPACK_SCALE]: 1.
                                    Control[UMFPACK_ALLOC_INIT]: 0.7
                                    Control[UMFPACK_DROPTOL]: 0.
                                    Control[UMFPACK_IRSTEP]: 0.
                                    Control[UMFPACK_ORDERING]: AMD (not using the PETSc ordering)
                        linear system matrix = precond matrix:
                        Mat Object: 1 MPI processes
                          type: seqaij
                          rows=210, cols=210
                          total: nonzeros=12474, allocated nonzeros=12474
                          total number of mallocs used during MatSetValues calls =0
                            using I-node routines: found 112 nodes, limit used is 5
                      Mat Object: 1 MPI processes
                        type: seqaij
                        rows=172, cols=210
                        total: nonzeros=8400, allocated nonzeros=8400
                        total number of mallocs used during MatSetValues calls =0
                          using I-node routines: found 47 nodes, limit used is 5
                linear system matrix = precond matrix:
                Mat Object: (fetidp_fieldsplit_lag_) 5 MPI processes
                  type: submatrix
                  rows=399, cols=399
            KSP solver for S = A11 - A10 inv(A00) A01 
              KSP Object: (fetidp_fieldsplit_p_) 5 MPI processes
                type: richardson
                  damping factor=1000.
                maximum iterations=1, initial guess is zero
                tolerances:  relative=1e-05, absolute=1e-50, divergence=10000.
                left preconditioning
                using PRECONDITIONED norm type for convergence test
              PC Object: (fetidp_fieldsplit_p_) 5 MPI processes
                type: none
                linear system matrix followed by preconditioner matrix:
                Mat Object: (fetidp_fieldsplit_p_) 5 MPI processes
                  type: schurcomplement
                  rows=55, cols=55
                    Schur complement A11 - A10 inv(A00) A01
                    A11
                      Mat Object: (fetidp_fieldsplit_p_) 5 MPI processes
                        type: submatrix
                        rows=55, cols=55
                    A10
                      Mat Object: 5 MPI processes
                        type: submatrix
                        rows=55, cols=399
                    KSP of A00
                      KSP Object: (fetidp_fieldsplit_lag_) 5 MPI processes
                        type: preonly
                        maximum iterations=10000, initial guess is zero
                        tolerances:  relative=1e-05, absolute=1e-50, divergence=10000.
                        left preconditioning
                        using NONE norm type for convergence test
                      PC Object: 5 MPI processes
                        type: shell
                          no name
                            FETI-DP multipliers Dirichlet preconditioner (just from rank 0)
                              Mat Object: 1 MPI processes
                                type: schurcomplement
                                rows=172, cols=172
                                  Schur complement A11 - A10 inv(A00) A01
                                  A11
                                    Mat Object: 1 MPI processes
                                      type: seqaij
                                      rows=172, cols=172
                                      total: nonzeros=6010, allocated nonzeros=6010
                                      total number of mallocs used during MatSetValues calls =0
                                        using I-node routines: found 65 nodes, limit used is 5
                                  A10
                                    Mat Object: 1 MPI processes
                                      type: seqaij
                                      rows=172, cols=105
                                      total: nonzeros=2316, allocated nonzeros=2316
                                      total number of mallocs used during MatSetValues calls =0
                                        using I-node routines: found 62 nodes, limit used is 5
                                  KSP of A00
                                    KSP Object: (fetidp_harmonic_) 1 MPI processes
                                      type: preonly
                                      maximum iterations=10000, initial guess is zero
                                      tolerances:  relative=1e-05, absolute=1e-50, divergence=10000.
                                      left preconditioning
                                      using NONE norm type for convergence test
                                    PC Object: (fetidp_harmonic_) 1 MPI processes
                                      type: cholesky
                                        out-of-place factorization
                                        tolerance for zero pivot 2.22045e-14
                                        matrix ordering: natural
                                        factor fill ratio given 0., needed 0.
                                          Factored matrix follows:
                                            Mat Object: 1 MPI processes
                                              type: cholmod
                                              rows=105, cols=105
                                              package used to perform factorization: cholmod
                                              total: nonzeros=0, allocated nonzeros=0
                                              total number of mallocs used during MatSetValues calls =0
                                                CHOLMOD run parameters:
                                                  Pack factors after symbolic factorization: TRUE
                                                  Common.dbound            0.  (Smallest absolute value of diagonal entries of D)
                                                  Common.grow0             1.2
                                                  Common.grow1             1.2
                                                  Common.grow2             5
                                                  Common.maxrank           8
                                                  Common.supernodal_switch 40.
                                                  Common.supernodal        1
                                                  Common.final_asis        1
                                                  Common.final_super       1
                                                  Common.final_ll          0
                                                  Common.final_pack        1
                                                  Common.final_monotonic   1
                                                  Common.final_resymbol    0
                                                  Common.zrelax            [0.8,0.1,0.05]
                                                  Common.nrelax            [4,16,48]
                                                  Common.prefer_upper      1
                                                  Common.print             3
                                                  Common.postorder         1
                                                  Common.default_nesdis    0 (use NESDIS instead of METIS for nested dissection)
                                                  Common.fl                65884. (flop count from most recent analysis)
                                                  Common.lnz               2424. (fundamental nz in L)
                                                  Common.anz               1668.
                                                  Common.modfl             -1. (flop count from most recent update)
                                                  Common.malloc_count      13. (number of live objects)
                                                  Common.memory_usage      56568. (peak memory usage in bytes)
                                                  Common.memory_inuse      36040. (current memory usage in bytes)
                                                  Common.nrealloc_col      0. (number of column reallocations)
                                                  Common.nrealloc_factor   0. (number of factor reallocations due to column reallocations)
                                                  Common.ndbounds_hit      0. (number of times diagonal was modified by dbound)
                                                  Common.rowfacfl          65779. (number of flops in last call to cholmod_rowfac)
                                                  Common.aatfl             0. (number of flops to compute A(:,f)*A(:,f)')
                                      linear system matrix = precond matrix:
                                      Mat Object: 1 MPI processes
                                        type: seqaij
                                        rows=105, cols=105
                                        total: nonzeros=3231, allocated nonzeros=3231
                                        total number of mallocs used during MatSetValues calls =0
                                          using I-node routines: found 35 nodes, limit used is 5
                                  A01
                                    Mat Object: 1 MPI processes
                                      type: seqaij
                                      rows=105, cols=172
                                      total: nonzeros=2316, allocated nonzeros=2316
                                      total number of mallocs used during MatSetValues calls =0
                                        using I-node routines: found 35 nodes, limit used is 5
                            FETI-DP BDdelta: DB^t * (B D^-1 B^t)^-1 for deluxe scaling (just from rank 0)
                              KSP Object: (fetidp_bddelta_) 1 MPI processes
                                type: preonly
                                maximum iterations=10000, initial guess is zero
                                tolerances:  relative=1e-05, absolute=1e-50, divergence=10000.
                                left preconditioning
                                using NONE norm type for convergence test
                              PC Object: (fetidp_bddelta_) 1 MPI processes
                                type: lu
                                  out-of-place factorization
                                  tolerance for zero pivot 2.22045e-14
                                  matrix ordering: nd
                                  factor fill ratio given 0., needed 0.
                                    Factored matrix follows:
                                      Mat Object: 1 MPI processes
                                        type: umfpack
                                        rows=210, cols=210
                                        package used to perform factorization: umfpack
                                        total: nonzeros=0, allocated nonzeros=0
                                        total number of mallocs used during MatSetValues calls =0
                                          UMFPACK run parameters:
                                            Control[UMFPACK_PRL]: 1.
                                            Control[UMFPACK_STRATEGY]: 0.
                                            Control[UMFPACK_DENSE_COL]: 0.2
                                            Control[UMFPACK_DENSE_ROW]: 0.2
                                            Control[UMFPACK_AMD_DENSE]: 10.
                                            Control[UMFPACK_BLOCK_SIZE]: 32.
                                            Control[UMFPACK_FIXQ]: 0.
                                            Control[UMFPACK_AGGRESSIVE]: 1.
                                            Control[UMFPACK_PIVOT_TOLERANCE]: 0.1
                                            Control[UMFPACK_SYM_PIVOT_TOLERANCE]: 0.001
                                            Control[UMFPACK_SCALE]: 1.
                                            Control[UMFPACK_ALLOC_INIT]: 0.7
                                            Control[UMFPACK_DROPTOL]: 0.
                                            Control[UMFPACK_IRSTEP]: 0.
                                            Control[UMFPACK_ORDERING]: AMD (not using the PETSc ordering)
                                linear system matrix = precond matrix:
                                Mat Object: 1 MPI processes
                                  type: seqaij
                                  rows=210, cols=210
                                  total: nonzeros=12474, allocated nonzeros=12474
                                  total number of mallocs used during MatSetValues calls =0
                                    using I-node routines: found 112 nodes, limit used is 5
                              Mat Object: 1 MPI processes
                                type: seqaij
                                rows=172, cols=210
                                total: nonzeros=8400, allocated nonzeros=8400
                                total number of mallocs used during MatSetValues calls =0
                                  using I-node routines: found 47 nodes, limit used is 5
                        linear system matrix = precond matrix:
                        Mat Object: (fetidp_fieldsplit_lag_) 5 MPI processes
                          type: submatrix
                          rows=399, cols=399
                    A01
                      Mat Object: 5 MPI processes
                        type: submatrix
                        rows=399, cols=55
                Mat Object: 5 MPI processes
                  type: mpiaij
                  rows=55, cols=55
                  total: nonzeros=55, allocated nonzeros=55
                  total number of mallocs used during MatSetValues calls =0
                    not using I-node (on process 0) routines
          linear system matrix = precond matrix:
          Mat Object: (fetidp_) 5 MPI processes
            type: shell
            rows=454, cols=454
      BDDC solver details
        PC Object: (fetidp_bddc_) 5 MPI processes
          type: bddc
            Use verbose output: 0
            Use user-defined CSR: 0
            Use local mat graph: 1
            Connectivity graph topological dimension: 3
            Graph max count: 2147483647
            Use vertices: 1 (vertex size 3)
            Use edges: 1
            Use faces: 0
            Use true near null space: 0
            Use QR for single constraints on cc: 0
            Use change of basis on local edge nodes: 0
            Use change of basis on local face nodes: 0
            User defined change of basis matrix: 0
            Has change of basis matrix: 0
            Eliminate dirichlet boundary dofs: 1
            Switch on static condensation ops around the interface preconditioner: 1
            Use exact dirichlet trick: 0
            Multilevel max levels: 0
            Multilevel coarsening ratio: 8
            Use estimated eigs for coarse problem: 0
            Use deluxe scaling: 1
            Use deluxe zerorows: 0
            Use deluxe singlemat: 1
            Rebuild interface graph for Schur principal minors: 0
            Number of dofs' layers for the computation of principal minors: -1
            Use user CSR graph to compute successive layers: 0
            Adaptive constraint selection threshold (active 0, userdefined 0): 0.
            Min constraints / connected component: 0
            Max constraints / connected component: 0
            Invert exact Schur complement for adaptive selection: 0
            Symmetric computation of primal basis functions: 0
            Num. Procs. to map coarse adjacency list: 0
            Coarse eqs per proc (significant at the coarsest level): 1
            Detect disconnected: 0
            Benign subspace trick: 1 (change explicit 0)
            Benign subspace trick is active: 0
            Algebraic computation of no-net-flux 0
            ********************************** STATISTICS AT LEVEL 0 **********************************
            Global dofs sizes: all 1154 interface 391 coarse 1
            Coarsening ratios: all/coarse 1154 interface/coarse 391
            Active processes : 5
            Total subdomains : 5
            Dofs type        :	MIN	MAX	MEAN
            Interior  dofs   :	115	303	152
            Interface dofs   :	172	172	172
            Primal    dofs   :	1	1	1
            Local     dofs   :	287	475	324
            Local     subs   :	1	1
            ********************************** COARSE PROBLEM DETAILS *********************************
          KSP Object: (fetidp_bddc_pc_bddc_coarse_) 1 MPI processes
            type: preonly
            maximum iterations=1000, initial guess is zero
            tolerances:  relative=1e-10, absolute=1e-10, divergence=10000.
            left preconditioning
            using NONE norm type for convergence test
          PC Object: (fetidp_bddc_pc_bddc_coarse_) 1 MPI processes
            type: redundant
              First (color=0) of 1 PCs follows
              KSP Object: (fetidp_bddc_pc_bddc_coarse_redundant_) 1 MPI processes
                type: preonly
                maximum iterations=10000, initial guess is zero
                tolerances:  relative=1e-05, absolute=1e-50, divergence=10000.
                left preconditioning
                using NONE norm type for convergence test
              PC Object: (fetidp_bddc_pc_bddc_coarse_redundant_) 1 MPI processes
                type: lu
                  out-of-place factorization
                  Reusing fill from past factorization
                  tolerance for zero pivot 2.22045e-14
                  matrix ordering: nd
                  factor fill ratio given 5., needed 1.
                    Factored matrix follows:
                      Mat Object: 1 MPI processes
                        type: seqaij
                        rows=1, cols=1
                        package used to perform factorization: petsc
                        total: nonzeros=1, allocated nonzeros=1
                        total number of mallocs used during MatSetValues calls =0
                          not using I-node routines
                linear system matrix = precond matrix:
                Mat Object: 1 MPI processes
                  type: seqaij
                  rows=1, cols=1
                  total: nonzeros=1, allocated nonzeros=1
                  total number of mallocs used during MatSetValues calls =0
                    not using I-node routines
            linear system matrix = precond matrix:
            Mat Object: 1 MPI processes
              type: seqaij
              rows=1, cols=1
              total: nonzeros=1, allocated nonzeros=1
              total number of mallocs used during MatSetValues calls =0
                not using I-node routines
          linear system matrix = precond matrix:
          Mat Object: 5 MPI processes
            type: is
            rows=1154, cols=1154
            total: nonzeros=87213, allocated nonzeros=87213
            total number of mallocs used during MatSetValues calls =0
    maximum iterations=10000, initial guess is zero
    tolerances:  relative=1e-08, absolute=1e-50, divergence=10000.
    left preconditioning
    using NONE norm type for convergence test
  PC Object: 5 MPI processes
    type: none
    linear system matrix = precond matrix:
    Mat Object: 5 MPI processes
      type: is
      rows=1154, cols=1154
      total: nonzeros=87213, allocated nonzeros=112563
      total number of mallocs used during MatSetValues calls =0
        has attached null space
Number of SNES iterations = 1
L_2 Error: 2.08811e-08 [7.62942e-10, 2.08671e-08]
